version 1
nodes
0 "cube1" -1
end
skeleton
time 0
0 0.000000 -0.000000 1.957346 1.570796 -0.000000 0.000000
end
triangles
goldbarcake.vtf
0 -3.707874 2.307177 -0.042653 0.000000 0.440174 0.897913 0.776012 0.049992 
0 -2.000000 2.000000 3.957346 0.000000 0.440174 0.897913 0.859462 0.172960 
0 2.000000 2.000000 3.957346 0.000000 0.440174 0.897913 0.571697 0.210678 
goldbarcake.vtf
0 -3.707874 2.307177 -0.042653 0.000000 0.440174 0.897913 0.776012 0.049992 
0 2.000000 2.000000 3.957346 0.000000 0.440174 0.897913 0.571697 0.210678 
0 3.464534 2.307177 -0.042653 0.000000 0.440174 0.897913 0.361742 0.092473 
goldbarcake.vtf
0 -3.707874 2.307177 -0.042653 0.000000 -0.000000 1.000000 0.291178 0.936636 
0 3.464534 2.307177 -0.042653 0.000000 -0.000000 1.000000 0.302484 0.825901 
0 3.464534 -2.289013 -0.042654 0.000000 -0.000000 1.000000 0.359109 0.856979 
goldbarcake.vtf
0 -3.707874 2.307177 -0.042653 0.000000 -0.000000 1.000000 0.291178 0.936636 
0 3.464534 -2.289013 -0.042654 0.000000 -0.000000 1.000000 0.359109 0.856979 
0 -3.707874 -2.289013 -0.042654 0.000000 -0.000000 1.000000 0.378894 0.945113 
goldbarcake.vtf
0 -3.707874 2.307177 -0.042653 -0.364435 -0.000000 0.931229 0.348746 0.100385 
0 -3.707874 -2.289013 -0.042654 -0.364435 -0.000000 0.931229 0.273399 0.947408 
0 -2.000000 -2.000000 3.957346 -0.364435 -0.000000 0.931229 0.478659 0.952420 
goldbarcake.vtf
0 -3.707874 2.307177 -0.042653 -0.364435 -0.000000 0.931229 0.348746 0.100385 
0 -2.000000 -2.000000 3.957346 -0.364435 -0.000000 0.931229 0.478659 0.952420 
0 -2.000000 2.000000 3.957346 -0.364435 -0.000000 0.931229 0.566843 0.210504 
goldbarcake.vtf
0 3.464534 2.307177 -0.042653 0.377824 -0.000000 0.925877 0.347219 0.103332 
0 2.000000 2.000000 3.957346 0.377824 -0.000000 0.925877 0.565250 0.207214 
0 2.000000 -2.000000 3.957346 0.377824 -0.000000 0.925877 0.473048 0.948826 
goldbarcake.vtf
0 3.464534 2.307177 -0.042653 0.377824 -0.000000 0.925877 0.347219 0.103332 
0 2.000000 -2.000000 3.957346 0.377824 -0.000000 0.925877 0.473048 0.948826 
0 3.464534 -2.289013 -0.042654 0.377824 -0.000000 0.925877 0.274472 0.950725 
goldbarcake.vtf
0 -2.000000 2.000000 3.957346 0.000000 -0.000000 1.000000 0.859462 0.172960 
0 -2.000000 -2.000000 3.957346 0.000000 -0.000000 1.000000 0.738232 0.880607 
0 2.000000 -2.000000 3.957346 0.000000 -0.000000 1.000000 0.478742 0.951113 
goldbarcake.vtf
0 -2.000000 2.000000 3.957346 0.000000 -0.000000 1.000000 0.859462 0.172960 
0 2.000000 -2.000000 3.957346 0.000000 -0.000000 1.000000 0.478742 0.951113 
0 2.000000 2.000000 3.957346 0.000000 -0.000000 1.000000 0.571697 0.210678 
goldbarcake.vtf
0 -3.707874 -2.289013 -0.042654 0.000000 -0.441081 0.897468 0.361505 0.095717 
0 3.464534 -2.289013 -0.042654 0.000000 -0.441081 0.897468 0.776508 0.048767 
0 2.000000 -2.000000 3.957346 0.000000 -0.441081 0.897468 0.858161 0.172959 
goldbarcake.vtf
0 -3.707874 -2.289013 -0.042654 0.000000 -0.441081 0.897468 0.361505 0.095717 
0 2.000000 -2.000000 3.957346 0.000000 -0.441081 0.897468 0.858161 0.172959 
0 -2.000000 -2.000000 3.957346 0.000000 -0.441081 0.897468 0.566493 0.206314 
end
